{
  "lintOptions": {
    "typeCheck": true
  },
  "extends": [
    "tslint-eslint-rules"
  ],
  "rules": {
    "no-constant-condition": true,
    "cyclomatic-complexity": false,
    "newline-before-return": false,
    "no-parameter-properties": false,
    "no-unused-variable": false,
    "align": {
        "options": [
            "parameters",
            "statements",
            "members",
            "elements"
        ]
    },
    "arrow-return-shorthand": true,
    "comment-format": [
        true,
        "check-space"
    ],
    "member-access": true,
    "only-arrow-functions": [
        true,
        "allow-declarations",
        "allow-named-functions"
    ],

    "completed-docs": true,
    "no-any": true,
    "no-magic-numbers": true,
    "no-non-null-assertion": true,
    "no-null-keyword": true,
    "no-require-imports": true,
    "no-unbound-method": true,
    "no-unnecessary-qualifier": true,
    "no-use-before-declare": true,
    "no-void-expression": true,
    "prefer-function-over-method": true,
    "strict-type-predicates": true,
    "triple-equals": true,
    "typedef": true,

    "ban": [true,
      ["describe", "only"],
      ["it", "only"]
    ],

    "interface-name": false,
    "file-header": false,
    "max-classes-per-file": false,
    "max-line-length": [true, 140],
    "member-ordering": [true,
      "public-before-private",
      "static-before-instance",
      "variables-before-functions"
    ],
    "no-console": true,
    "no-switch-case-fall-through": true,
    "strict-boolean-expressions": [
      true,
      "allow-null-union",
      "allow-undefined-union",
      "allow-string"],
    "switch-default": false,
    "variable-name": [true,
      "ban-keywords",
      "check-format",
      "allow-leading-underscore",
      "allow-pascal-case"
    ]
  }
}
